# This file uses centimeters as units for non-parametric coordinates.

v 0.111269 13.404421 0.283013
v 0.215446 13.404421 0.238216
v 0.253690 13.433848 0.166988
v 0.276935 13.433848 0.096734
v 0.285626 13.433848 0.014455
v 0.278973 13.433848 -0.076940
v 0.258158 13.433848 -0.213832
v 0.221596 13.404421 -0.285938
v 0.118498 13.404421 -0.333167
v 0.003801 13.404421 -0.350370
v -0.111268 13.404421 -0.335863
v -0.181906 13.433848 -0.290672
v -0.217610 13.433848 -0.223935
v -0.240951 13.433848 -0.145494
v -0.278687 13.433848 -0.031356
v -0.243508 13.433848 0.072431
v -0.222142 13.433848 0.162328
v -0.188056 13.433848 0.233481
v -0.118498 13.404421 0.280317
v -0.003801 13.404421 0.297520
v 0.107932 13.178308 0.567350
v 0.212608 13.178308 0.480087
v 0.296473 13.178308 0.343244
v 0.305064 13.178308 -0.389036
v 0.224434 13.178308 -0.527809
v 0.121834 13.178308 -0.617504
v 0.007309 13.178308 -0.649339
v -0.107932 13.178308 -0.620200
v -0.212608 13.178308 -0.532937
v -0.224434 13.178308 0.474959
v -0.121834 13.178308 0.564654
v -0.007309 13.178308 0.596489
v 0.107932 12.806078 0.567350
v 0.212608 12.806078 0.480087
v 0.296473 12.806078 0.343244
v 0.305064 12.806078 -0.389036
v 0.224434 12.806078 -0.527809
v 0.121834 12.806078 -0.617504
v 0.007309 12.806078 -0.649339
v -0.107932 12.806078 -0.620200
v -0.212608 12.806078 -0.532937
v -0.224434 12.806078 0.474959
v -0.121834 12.806078 0.564654
v -0.007309 12.806078 0.596489
v 0.110530 12.530384 0.345964
v 0.214818 12.530384 0.291765
v 0.298078 12.530384 0.206420
v 0.303459 12.530384 -0.252212
v 0.222224 12.530384 -0.339488
v 0.119237 12.530384 -0.396118
v 0.004577 12.530384 -0.416561
v -0.110530 12.530384 -0.398814
v -0.214818 12.530384 -0.344615
v -0.222224 12.530384 0.286637
v -0.119237 12.530384 0.343268
v -0.004577 12.530384 0.363711
v 0.114176 12.333921 0.035245
v 0.217919 12.333921 0.027452
v 0.300331 12.382814 0.014385
v -0.000744 12.309075 0.037001
v -0.114883 12.284788 -0.027773
v -0.219123 12.382814 0.022324
v 0.261557 13.433848 -0.166974
v 0.264021 13.433848 -0.124512
v 0.079172 12.623695 -0.225662
v 0.076442 12.512560 0.007014
v 0.074476 12.623695 0.174615
v 0.073075 12.831323 0.294030
v 0.073075 13.111652 0.294030
v 0.066021 13.304101 0.140555
v 0.065301 13.304102 0.087361
v 0.062291 13.304102 0.022974
v 0.048212 13.304102 -0.049796
v 0.053701 13.304101 -0.106785
v 0.060049 13.304101 -0.150201
v 0.069921 13.304101 -0.191810
v 0.080574 13.111652 -0.345077
v 0.080574 12.831323 -0.345077
v 0.300789 14.953842 0.195564
v 0.111269 14.933688 0.283013
v 0.353599 14.933688 0.114891
v 0.371796 14.933688 0.000000
v 0.353599 14.933688 -0.114891
v 0.300789 14.933688 -0.218536
v 0.218536 14.953842 -0.283991
v 0.130446 14.953843 -0.299345
v 0.029494 14.953843 -0.304636
v -0.078480 14.953843 -0.299345
v -0.170237 14.953842 -0.277681
v -0.218536 14.953842 -0.270076
v -0.300789 14.933688 -0.218536
v -0.353599 14.933688 -0.114891
v -0.371796 14.933688 0.000000
v -0.353599 14.933688 0.114891
v -0.300789 14.953842 0.195564
v -0.118498 14.933688 0.280317
v -0.003801 14.933688 0.297520
v 0.353599 18.256929 -0.114891
v 0.300789 18.256929 -0.218536
v 0.218536 18.256929 -0.344946
v 0.114891 18.256929 -0.344946
v -0.000000 18.256929 -0.344946
v -0.114891 18.256929 -0.344946
v -0.218536 18.256929 -0.300789
v -0.300789 18.256929 -0.218536
v -0.353599 18.256929 -0.114891
v -0.371796 18.256929 0.000000
v -0.353599 18.256929 0.114891
v -0.300789 18.256929 0.218536
v -0.218536 18.256929 0.300789
v -0.114891 18.256929 0.353599
v -0.000000 18.256929 0.371796
v 0.114891 18.256929 0.353599
v 0.218536 18.256929 0.300789
v 0.300789 18.256929 0.218536
v 0.353599 18.256929 0.114891
v 0.371796 18.256929 0.000000
v 0.353599 19.355183 -0.114891
v 0.300789 19.355183 -0.218536
v 0.000000 19.355183 0.000000
v 0.218536 19.355183 -0.344946
v 0.114891 19.355183 -0.344946
v -0.000000 19.355183 -0.344946
v -0.114891 19.355183 -0.344946
v -0.218536 19.355183 -0.300789
v -0.300789 19.355183 -0.218536
v -0.353599 19.355183 -0.114891
v -0.371796 19.355183 0.000000
v -0.353599 19.355183 0.114891
v -0.300789 19.355183 0.218536
v -0.218536 19.355183 0.300789
v -0.114891 19.355183 0.353599
v -0.000000 19.355183 0.371796
v 0.114891 19.355183 0.353599
v 0.218536 19.355183 0.300789
v 0.300789 19.355183 0.218536
v 0.353599 19.355183 0.114891
v 0.371796 19.355183 0.000000
v 0.353599 19.050858 -0.114891
v 0.300789 19.050858 -0.218536
v 0.218536 19.050858 -0.344946
v 0.114891 19.050858 -0.344946
v -0.000000 19.050858 -0.344946
v -0.114891 19.050858 -0.344946
v -0.218536 19.050858 -0.300789
v -0.300789 19.050858 -0.218536
v -0.353599 19.050858 -0.114891
v -0.371796 19.050858 0.000000
v -0.353599 19.050858 0.114891
v -0.300789 19.050858 0.218536
v -0.218536 19.050858 0.300789
v -0.114891 19.050858 0.353599
v -0.000000 19.050858 0.371796
v 0.114891 19.050858 0.353599
v 0.218536 19.050858 0.300789
v 0.300789 19.050858 0.218536
v 0.353599 19.050858 0.114891
v 0.371796 19.050858 0.000000
v 0.353599 18.651527 -0.114891
v 0.300789 18.651527 -0.218536
v 0.218536 18.651527 -0.344946
v 0.114891 18.651527 -0.344946
v -0.000000 18.651527 -0.344946
v -0.114891 18.651527 -0.344946
v -0.218536 18.651527 -0.300789
v -0.300789 18.651527 -0.218536
v -0.353599 18.651527 -0.114891
v -0.371796 18.651527 0.000000
v -0.353599 18.651527 0.114891
v -0.300789 18.651527 0.218536
v -0.218536 18.651527 0.300789
v -0.114891 18.651527 0.353599
v -0.000000 18.651527 0.371796
v 0.114891 18.651527 0.353599
v 0.218536 18.651527 0.300789
v 0.300789 18.651527 0.218536
v 0.353599 18.651527 0.114891
v 0.371796 18.651527 0.000000
v 0.218536 19.050858 -0.848612
v 0.114891 19.050858 -0.848612
v 0.114891 19.355183 -0.848612
v 0.218536 19.355183 -0.848612
v -0.000000 19.050858 -0.848612
v -0.000000 19.355183 -0.848612
v -0.114891 19.050858 -0.848612
v -0.114891 19.355183 -0.848612
v 0.218536 18.256929 -0.848612
v 0.114891 18.256929 -0.848612
v 0.114891 18.651527 -0.848612
v 0.218536 18.651527 -0.848612
v -0.000000 18.256929 -0.848612
v -0.000000 18.651527 -0.848612
v -0.114891 18.256929 -0.848612
v -0.114891 18.651527 -0.848612
v 0.218536 19.050858 -0.732587
v 0.114891 19.050858 -0.732587
v -0.000000 19.050858 -0.732587
v -0.114891 19.050858 -0.732587
v -0.114891 19.355183 -0.732587
v -0.000000 19.355183 -0.732587
v 0.114891 19.355183 -0.732587
v 0.218536 19.355183 -0.732587
v 0.218536 18.256929 -0.757301
v 0.114891 18.256929 -0.757301
v -0.000000 18.256929 -0.757301
v -0.114891 18.256929 -0.757301
v -0.114891 18.651527 -0.757301
v -0.000000 18.651527 -0.757301
v 0.114891 18.651527 -0.757301
v 0.218536 18.651527 -0.757301
v -0.154644 18.256929 -0.328010
v -0.154644 18.651527 -0.328010
v -0.154644 19.050858 -0.328010
v -0.154644 19.355183 -0.328010
v -0.065644 19.355183 -0.197087
v -0.182031 19.355183 -0.316342
v -0.182031 19.050858 -0.316342
v -0.182031 18.651527 -0.316342
v -0.182031 18.256929 -0.316342
vt 0.000000 0.000000
vt 1.000000 0.000000
vt 1.000000 1.000000
vt 0.000000 1.000000
vt 0.000000 0.000000
vt 1.000000 0.000000
vt 1.000000 1.000000
vt 0.000000 0.500000
vt 0.000000 0.000000
vt 1.000000 0.000000
vt 1.000000 0.500000
vt 0.000000 1.000000
vt 0.000000 0.000000
vt 1.000000 0.000000
vt 1.000000 1.000000
vt 0.000000 1.000000
vt 0.000000 0.000000
vt 1.000000 0.000000
vt 1.000000 1.000000
vt 0.000000 1.000000
vt 0.000000 0.000000
vt 1.000000 0.000000
vt 1.000000 1.000000
vt 0.000000 1.000000
vt 0.000000 0.000000
vt 1.000000 0.000000
vt 1.000000 1.000000
vt 0.000000 0.500000
vt 0.000000 0.000000
vt 1.000000 0.000000
vt 1.000000 0.500000
vt 0.000000 1.000000
vt 0.000000 0.000000
vt 1.000000 0.000000
vt 1.000000 1.000000
vt 0.000000 1.000000
vt 0.000000 0.000000
vt 1.000000 0.000000
vt 1.000000 1.000000
vt 0.000000 1.000000
vt 0.000000 0.000000
vt 1.000000 0.000000
vt 1.000000 1.000000
vt 0.000000 1.000000
vt 1.000000 0.000000
vt 1.000000 1.000000
vt 0.000000 0.500000
vt 0.000000 0.000000
vt 1.000000 0.500000
vt 0.000000 1.000000
vt 0.000000 0.000000
vt 1.000000 0.000000
vt 1.000000 1.000000
vt 0.000000 1.000000
vt 0.000000 0.000000
vt 1.000000 0.000000
vt 1.000000 1.000000
vt 0.000000 1.000000
vt 0.000000 0.000000
vt 1.000000 0.000000
vt 1.000000 1.000000
vt 0.000000 1.000000
vt 1.000000 0.000000
vt 1.000000 1.000000
vt 0.000000 0.500000
vt 0.000000 0.000000
vt 1.000000 0.500000
vt 0.000000 1.000000
vt 0.000000 0.000000
vt 1.000000 0.000000
vt 1.000000 1.000000
vt 0.000000 1.000000
vt 0.000000 0.000000
vt 1.000000 0.000000
vt 1.000000 1.000000
vt 0.000000 1.000000
vt 0.000000 0.000000
vt 1.000000 0.000000
vt 1.000000 1.000000
vt 0.000000 1.000000
vt 1.000000 0.000000
vt 1.000000 1.000000
vt 0.000000 0.500000
vt 0.000000 0.000000
vt 1.000000 0.500000
vt 0.000000 1.000000
vt 0.000000 0.000000
vt 1.000000 0.000000
vt 1.000000 1.000000
vt 0.000000 1.000000
vt 0.000000 0.000000
vt 1.000000 0.000000
vt 1.000000 1.000000
vt 0.000000 1.000000
vt 0.000000 0.000000
vt 1.000000 0.000000
vt 1.000000 1.000000
vt 0.000000 1.000000
vt 1.000000 0.000000
vt 1.000000 1.000000
vt 0.000000 0.500000
vt 0.000000 0.000000
vt 1.000000 0.500000
vt 0.000000 1.000000
vt 0.000000 0.000000
vt 1.000000 0.000000
vt 1.000000 1.000000
vt 0.000000 1.000000
vt 0.000000 0.000000
vt 1.000000 0.000000
vt 1.000000 1.000000
vt 0.000000 1.000000
vt 0.000000 0.000000
vt 1.000000 0.000000
vt 0.999040 1.025606
vt 0.000693 0.974246
vt 1.000000 0.000000
vt 0.998509 1.063785
vt 0.531100 1.116862
vt 0.000000 0.000000
vt 0.017714 1.336356
vt 0.000000 0.000000
vt 1.000000 0.000000
vt 1.001220 1.209376
vt 0.003747 1.316385
vt 0.000000 0.000000
vt 1.000000 0.000000
vt 1.001286 1.362791
vt 0.003102 1.429354
vt 0.000000 0.000000
vt 1.000000 0.000000
vt 0.997133 1.301712
vt 0.000000 1.000000
vt 1.000000 0.000000
vt 1.000000 1.000000
vt 0.158989 1.218950
vt 0.000000 0.000000
vt 0.000000 1.000000
vt 0.000000 0.000000
vt 1.000000 0.000000
vt 1.000000 1.000000
vt 0.000542 0.966702
vt 0.000000 0.000000
vt 1.000000 0.000000
vt 0.999571 1.011288
vt 0.000289 0.990612
vt 0.577869 0.500000
vt 0.374020 1.159956
vt 0.577869 0.500000
vt 0.577869 0.500000
vt 0.577869 0.000000
vt 0.422131 0.500000
vt 0.422131 0.000000
vt 0.422131 0.500000
vt 0.422131 0.500000
vt 0.559261 0.000000
vt 0.880519 0.000000
vt 0.539324 0.000000
vt 0.752498 0.000000
vt 0.442876 0.000000
vt 0.133207 0.000000
vt 0.469309 0.000000
vt 0.302931 0.000000
vt 0.503050 0.000000
vt 0.519582 0.000000
vt 0.866793 0.000000
vt 0.697069 0.000000
vt 0.480418 0.000000
vt 0.247502 0.000000
vt 0.119481 0.000000
vt 0.375000 0.312500
vt 0.387500 0.312500
vt 0.397312 0.431840
vt 0.374990 0.430906
vt 0.400000 0.312500
vt 0.409793 0.427460
vt 0.412500 0.312500
vt 0.428006 0.427627
vt 0.425000 0.312500
vt 0.443381 0.428131
vt 0.437500 0.312500
vt 0.452335 0.428890
vt 0.442294 0.312500
vt 0.445597 0.312500
vt 0.462178 0.432624
vt 0.450000 0.312500
vt 0.462500 0.312500
vt 0.475000 0.312500
vt 0.472122 0.432588
vt 0.487500 0.312500
vt 0.483575 0.432572
vt 0.500000 0.312500
vt 0.497647 0.431792
vt 0.512500 0.312500
vt 0.510970 0.431238
vt 0.525000 0.312500
vt 0.516326 0.431015
vt 0.537500 0.312500
vt 0.534555 0.429391
vt 0.550000 0.312500
vt 0.541553 0.429406
vt 0.562500 0.312500
vt 0.558918 0.429448
vt 0.575000 0.312500
vt 0.576364 0.429458
vt 0.587500 0.312500
vt 0.585943 0.430651
vt 0.600000 0.312500
vt 0.601282 0.431085
vt 0.612500 0.312500
vt 0.612687 0.430992
vt 0.625000 0.312500
vt 0.625001 0.430979
vt 0.375046 0.430979
vt 0.387277 0.430972
vt 0.387500 0.688440
vt 0.375000 0.688440
vt 0.399951 0.431566
vt 0.400000 0.688440
vt 0.412365 0.431076
vt 0.412500 0.688440
vt 0.424818 0.431000
vt 0.425000 0.688440
vt 0.437015 0.430984
vt 0.437500 0.688440
vt 0.442294 0.688440
vt 0.450570 0.431370
vt 0.462394 0.430917
vt 0.462500 0.688440
vt 0.450000 0.688440
vt 0.474985 0.430970
vt 0.475000 0.688440
vt 0.487498 0.430977
vt 0.487500 0.688440
vt 0.500240 0.430818
vt 0.500000 0.688440
vt 0.512803 0.431361
vt 0.512500 0.688440
vt 0.525000 0.688440
vt 0.537835 0.429444
vt 0.537500 0.688440
vt 0.549799 0.429415
vt 0.550000 0.688440
vt 0.562045 0.429411
vt 0.562500 0.688440
vt 0.587211 0.431348
vt 0.575000 0.688440
vt 0.587500 0.688440
vt 0.599759 0.430818
vt 0.600000 0.688440
vt 0.612466 0.430956
vt 0.612500 0.688440
vt 0.624945 0.430973
vt 0.625000 0.688440
vt 0.648603 0.892034
vt 0.626409 0.935591
vt 0.500000 0.837500
vt 0.591841 0.970159
vt 0.548284 0.992353
vt 0.500000 1.000000
vt 0.451716 0.992353
vt 0.472413 0.925976
vt 0.423500 0.977976
vt 0.408159 0.970159
vt 0.373591 0.935591
vt 0.351397 0.892034
vt 0.343750 0.843750
vt 0.351397 0.795466
vt 0.373591 0.751909
vt 0.408159 0.717341
vt 0.451716 0.695147
vt 0.500000 0.687500
vt 0.548284 0.695147
vt 0.591842 0.717341
vt 0.626409 0.751908
vt 0.648603 0.795466
vt 0.656250 0.843750
vt 0.648603 0.892034
vt 0.626409 0.935591
vt 0.591841 0.970159
vt 0.591841 0.970159
vt 0.548284 0.992353
vt 0.548284 0.992353
vt 0.591841 0.970159
vt 0.500000 1.000000
vt 0.451716 0.992353
vt 0.451716 0.992353
vt 0.500000 1.000000
vt 0.451716 0.992353
vt 0.435010 0.983840
vt 0.435010 0.983840
vt 0.408159 0.970159
vt 0.373591 0.935591
vt 0.351397 0.892034
vt 0.343750 0.843750
vt 0.351397 0.795466
vt 0.373591 0.751909
vt 0.408159 0.717341
vt 0.451716 0.695147
vt 0.500000 0.687500
vt 0.548284 0.695147
vt 0.591842 0.717341
vt 0.626409 0.751908
vt 0.648603 0.795466
vt 0.656250 0.843750
vt 0.648603 0.892034
vt 0.626409 0.935591
vt 0.591841 0.970159
vt 0.548284 0.992353
vt 0.548284 0.992353
vt 0.500000 1.000000
vt 0.500000 1.000000
vt 0.451716 0.992353
vt 0.435010 0.983840
vt 0.408159 0.970159
vt 0.373591 0.935591
vt 0.351397 0.892034
vt 0.343750 0.843750
vt 0.351397 0.795466
vt 0.373591 0.751909
vt 0.408159 0.717341
vt 0.451716 0.695147
vt 0.500000 0.687500
vt 0.548284 0.695147
vt 0.591842 0.717341
vt 0.626409 0.751908
vt 0.648603 0.795466
vt 0.656250 0.843750
vt 0.648603 0.892034
vt 0.626409 0.935591
vt 0.591841 0.970159
vt 0.591841 0.970159
vt 0.548284 0.992353
vt 0.548284 0.992353
vt 0.591841 0.970159
vt 0.500000 1.000000
vt 0.451716 0.992353
vt 0.451716 0.992353
vt 0.500000 1.000000
vt 0.451716 0.992353
vt 0.435010 0.983840
vt 0.408159 0.970159
vt 0.373591 0.935591
vt 0.351397 0.892034
vt 0.343750 0.843750
vt 0.351397 0.795466
vt 0.373591 0.751909
vt 0.408159 0.717341
vt 0.451716 0.695147
vt 0.500000 0.687500
vt 0.548284 0.695147
vt 0.591842 0.717341
vt 0.626409 0.751908
vt 0.648603 0.795466
vt 0.656250 0.843750
vt 0.591841 0.970159
vt 0.548284 0.992353
vt 0.548284 0.992353
vt 0.591841 0.970159
vt 0.500000 1.000000
vt 0.451716 0.992353
vt 0.451716 0.992353
vt 0.500000 1.000000
vt 0.591841 0.970159
vt 0.548284 0.992353
vt 0.548284 0.992353
vt 0.591841 0.970159
vt 0.500000 1.000000
vt 0.451716 0.992353
vt 0.451716 0.992353
vt 0.500000 1.000000
vt 0.548284 0.992353
vt 0.500000 1.000000
vt 0.445597 0.688440
vt 0.445659 0.430979
vt 0.423500 0.977976
vt 0.423500 0.977976
vt 0.423500 0.977976
f 2/1 1/2 21/3 22/4
f 3/5 2/6 22/7 23/8
f 8/9 7/10 24/11 25/12
f 9/13 8/14 25/15 26/16
f 10/17 9/18 26/19 27/20
f 11/21 10/22 27/23 28/24
f 12/25 11/26 28/27 29/28
f 19/29 18/30 30/31 31/32
f 20/33 19/34 31/35 32/36
f 1/37 20/38 32/39 21/40
f 22/41 21/42 33/43 34/44
f 23/8 22/45 34/46 35/47
f 25/48 24/11 36/49 37/50
f 26/51 25/52 37/53 38/54
f 27/55 26/56 38/57 39/58
f 28/59 27/60 39/61 40/62
f 29/28 28/63 40/64 41/65
f 31/66 30/31 42/67 43/68
f 32/69 31/70 43/71 44/72
f 21/73 32/74 44/75 33/76
f 34/77 33/78 45/79 46/80
f 35/47 34/81 46/82 47/83
f 37/84 36/49 48/85 49/86
f 38/87 37/88 49/89 50/90
f 39/91 38/92 50/93 51/94
f 40/95 39/96 51/97 52/98
f 41/65 40/99 52/100 53/101
f 43/102 42/67 54/103 55/104
f 44/105 43/106 55/107 56/108
f 33/109 44/110 56/111 45/112
f 46/113 45/114 57/115 58/116
f 47/83 46/117 58/118 59/119
f 49/120 48/85 59/119 58/121
f 50/122 49/123 58/124 57/125
f 51/126 50/127 57/128 60/129
f 52/130 51/131 60/132 61/133
f 53/101 52/134 61/135 62/136
f 55/137 54/103 62/136 61/138
f 56/139 55/140 61/141 60/142
f 45/143 56/144 60/145 57/146
f 59/119 48/85 65/147 66/148
f 48/85 36/49 78/149 65/147
f 36/49 24/11 77/150 78/149
f 24/11 7/10 76/151 77/150
f 3/5 23/8 69/152 70/153
f 23/8 35/47 68/154 69/152
f 35/47 47/83 67/155 68/154
f 47/83 59/119 66/148 67/155
f 75/156 76/151 7/10 63/157
f 74/158 75/156 63/157 64/159
f 70/153 71/160 4/161 3/5
f 71/160 72/162 5/163 4/161
f 73/164 74/158 64/159 6/165
f 72/162 73/164 6/165 5/163
f 66/148 65/147 53/101 62/136
f 67/155 66/148 62/136 54/103
f 68/154 67/155 54/103 42/67
f 69/152 68/154 42/67 30/31
f 70/153 69/152 30/31 18/30
f 17/166 71/160 70/153 18/30
f 16/167 72/162 71/160 17/166
f 15/168 73/164 72/162 16/167
f 14/169 74/158 73/164 15/168
f 13/170 75/156 74/158 14/169
f 12/25 76/151 75/156 13/170
f 77/150 76/151 12/25 29/28
f 78/149 77/150 29/28 41/65
f 65/147 78/149 41/65 53/101
f 1/171 2/172 79/173 80/174
f 2/172 3/175 81/176 79/173
f 3/175 4/177 82/178 81/176
f 4/177 5/179 83/180 82/178
f 5/179 6/181 84/182 83/180
f 6/181 64/183 84/182
f 84/182 64/183 63/184
f 85/185 84/182 63/184 7/186
f 7/186 8/187 85/185
f 8/187 9/188 86/189 85/185
f 9/188 10/190 87/191 86/189
f 10/190 11/192 88/193 87/191
f 11/192 12/194 89/195 88/193
f 12/194 13/196 90/197 89/195
f 13/196 14/198 91/199 90/197
f 14/198 15/200 92/201 91/199
f 15/200 16/202 93/203 92/201
f 16/202 17/204 94/205 93/203
f 17/204 18/206 95/207 94/205
f 18/206 19/208 96/209 95/207
f 19/208 20/210 97/211 96/209
f 20/210 1/212 80/213 97/211
f 83/214 84/215 99/216 98/217
f 84/215 85/218 100/219 99/216
f 85/218 86/220 101/221 100/219
f 86/220 87/222 102/223 101/221
f 87/222 88/224 103/225 102/223
f 88/224 211/226 103/225
f 90/227 91/228 105/229 104/230
f 91/228 92/231 106/232 105/229
f 92/231 93/233 107/234 106/232
f 93/233 94/235 108/236 107/234
f 94/235 95/237 109/238 108/236
f 95/237 110/239 109/238
f 95/237 96/240 111/241 110/239
f 96/240 97/242 112/243 111/241
f 97/242 80/244 113/245 112/243
f 80/244 79/246 114/247 113/245
f 79/246 115/248 114/247
f 79/246 81/249 116/250 115/248
f 81/249 82/251 117/252 116/250
f 82/251 83/253 98/254 117/252
f 118/255 119/256 120/257
f 119/256 121/258 120/257
f 121/258 122/259 120/257
f 122/259 123/260 120/257
f 123/260 124/261 215/262 120/257
f 215/262 216/263 125/264 120/257
f 125/264 126/265 120/257
f 126/265 127/266 120/257
f 127/266 128/267 120/257
f 128/267 129/268 120/257
f 129/268 130/269 120/257
f 130/269 131/270 120/257
f 131/270 132/271 120/257
f 132/271 133/272 120/257
f 133/272 134/273 120/257
f 134/273 135/274 120/257
f 135/274 136/275 120/257
f 136/275 137/276 120/257
f 137/276 138/277 120/257
f 138/277 118/255 120/257
f 139/278 140/279 119/256 118/255
f 140/279 141/280 121/258 119/256
f 179/281 180/282 181/283 182/284
f 183/285 185/286 186/287 184/288
f 144/289 213/290 214/291 124/261
f 145/292 146/293 126/265 125/264
f 146/293 147/294 127/266 126/265
f 147/294 148/295 128/267 127/266
f 148/295 149/296 129/268 128/267
f 149/296 150/297 130/269 129/268
f 150/297 151/298 131/270 130/269
f 151/298 152/299 132/271 131/270
f 152/299 153/300 133/272 132/271
f 153/300 154/301 134/273 133/272
f 154/301 155/302 135/274 134/273
f 155/302 156/303 136/275 135/274
f 156/303 157/304 137/276 136/275
f 157/304 158/305 138/277 137/276
f 158/305 139/278 118/255 138/277
f 159/306 160/307 140/279 139/278
f 160/307 161/308 141/280 140/279
f 161/308 162/309 142/310 141/280
f 162/309 163/311 143/312 142/310
f 163/311 164/313 144/289 143/312
f 164/313 212/314 213/290 144/289
f 165/315 166/316 146/293 145/292
f 166/316 167/317 147/294 146/293
f 167/317 168/318 148/295 147/294
f 168/318 169/319 149/296 148/295
f 169/319 170/320 150/297 149/296
f 170/320 171/321 151/298 150/297
f 171/321 172/322 152/299 151/298
f 172/322 173/323 153/300 152/299
f 173/323 174/324 154/301 153/300
f 174/324 175/325 155/302 154/301
f 175/325 176/326 156/303 155/302
f 176/326 177/327 157/304 156/303
f 177/327 178/328 158/305 157/304
f 178/328 159/306 139/278 158/305
f 98/329 99/330 160/307 159/306
f 99/330 100/331 161/308 160/307
f 187/332 188/333 189/334 190/335
f 191/336 193/337 194/338 192/339
f 103/340 211/341 212/314 164/313
f 104/342 105/343 166/316 165/315
f 105/343 106/344 167/317 166/316
f 106/344 107/345 168/318 167/317
f 107/345 108/346 169/319 168/318
f 108/346 109/347 170/320 169/319
f 109/347 110/348 171/321 170/320
f 110/348 111/349 172/322 171/321
f 111/349 112/350 173/323 172/322
f 112/350 113/351 174/324 173/323
f 113/351 114/352 175/325 174/324
f 114/352 115/353 176/326 175/325
f 115/353 116/354 177/327 176/326
f 116/354 117/355 178/328 177/327
f 117/355 98/329 159/306 178/328
f 195/356 196/357 180/282 179/281
f 201/358 202/359 182/284 181/283
f 202/359 195/356 179/281 182/284
f 197/360 198/361 185/286 183/285
f 198/361 199/362 186/287 185/286
f 199/362 200/363 184/288 186/287
f 203/364 204/365 188/333 187/332
f 209/366 210/367 190/335 189/334
f 210/367 203/364 187/332 190/335
f 205/368 206/369 193/337 191/336
f 206/369 207/370 194/338 193/337
f 207/370 208/371 192/339 194/338
f 141/280 142/310 196/357 195/356
f 142/310 143/312 197/360 196/357
f 143/312 144/289 198/361 197/360
f 144/289 124/261 199/362 198/361
f 124/261 123/260 200/363 199/362
f 123/260 122/259 201/358 200/363
f 122/259 121/258 202/359 201/358
f 121/258 141/280 195/356 202/359
f 100/331 101/372 204/365 203/364
f 101/372 102/373 205/368 204/365
f 102/373 103/340 206/369 205/368
f 103/340 164/313 207/370 206/369
f 164/313 163/311 208/371 207/370
f 163/311 162/309 209/366 208/371
f 162/309 161/308 210/367 209/366
f 161/308 100/331 203/364 210/367
f 196/357 197/360 200/363 201/358
f 197/360 183/285 184/288 200/363
f 180/282 196/357 201/358 181/283
f 204/365 205/368 208/371 209/366
f 205/368 191/336 192/339 208/371
f 188/333 204/365 209/366 189/334
f 219/374 89/375 90/227 104/230
f 218/376 219/377 104/342 165/315
f 217/378 218/376 165/315 145/292
f 216/263 217/378 145/292 125/264
f 124/261 214/291 216/263 215/262
f 214/291 213/290 217/378 216/263
f 213/290 212/314 218/376 217/378
f 212/314 211/341 219/377 218/376
f 211/226 88/224 89/375 219/374
