# This file uses centimeters as units for non-parametric coordinates.

v -7.912731 0.942838 3.633701
v -7.912731 1.832837 4.533656
v -7.093627 0.942838 3.633701
v -7.093627 1.832837 4.533656
v -7.912731 9.843714 3.633701
v -7.912731 8.953716 4.533656
v -7.093627 9.843714 3.633701
v -7.093627 8.953716 4.533656
v -7.912731 8.953716 -4.466812
v -7.912731 9.843714 -3.566854
v -7.093627 8.953716 -4.466812
v -7.093627 9.843714 -3.566854
v -7.912731 0.942838 -3.566854
v -7.912731 1.832837 -4.466812
v -7.093627 0.942838 -3.566854
v -7.093627 1.832837 -4.466812
v -8.206215 9.843714 -0.157921
v -7.093627 9.843714 -0.114021
v -8.206215 0.942838 0.175868
v -7.093627 0.942838 0.219769
v -7.992322 3.356672 -2.795922
v -7.992322 3.763953 -3.207759
v -8.126621 3.356672 -1.083184
v -8.126621 7.429878 -1.235932
v -7.992322 7.429878 -2.795922
v -7.992322 7.022599 -3.207759
v -8.199410 3.410556 -2.778713
v -8.199410 3.807061 -3.179654
v -8.330162 3.410556 -1.111290
v -8.330162 7.375991 -1.259997
v -8.199410 7.375991 -2.778713
v -8.199410 6.979490 -3.179654
v -8.103920 4.045248 2.640967
v -8.103920 6.741299 2.539863
v -8.015020 4.045248 3.688336
v -8.015020 4.314828 3.960932
v -8.015020 6.471724 3.960932
v -8.015020 6.741299 3.688336
v -8.015020 5.364056 3.960932
v -7.912731 5.296807 4.533656
v -7.093627 5.296807 4.533656
v -8.330162 5.458168 -1.188077
v -8.126621 5.459930 -1.162058
v -8.206215 5.538938 0.003511
v -8.103920 5.437396 2.588761
v -8.199410 5.276851 -3.179654
v -7.992322 5.273689 -3.207759
v -7.912731 5.131955 -4.466812
v -7.093627 5.131955 -4.466812
v -8.045856 5.822579 3.214609
v -8.045856 6.310205 3.208471
v -8.031373 5.795151 3.386861
v -8.031373 6.209388 3.386861
v -8.031373 6.310205 3.352642
v -8.047020 5.043445 3.205914
v -8.030211 5.011611 3.405832
v -8.047020 4.439199 3.213520
v -8.030211 4.439199 3.366117
v -8.030211 4.556207 3.405832
v -8.174864 5.822579 3.214609
v -8.174864 6.310205 3.208471
v -8.160381 5.795151 3.386861
v -8.160381 6.209388 3.386861
v -8.160381 6.310205 3.352642
v -8.224911 5.737956 3.214609
v -8.393336 6.035100 3.208471
v -8.206612 5.747604 3.386861
v -8.349688 6.000029 3.386861
v -8.384509 6.061461 3.352642
v -8.224911 5.210892 3.214609
v -8.393336 5.210893 3.208471
v -8.206612 5.210892 3.386861
v -8.349688 5.210893 3.386861
v -8.384509 5.210893 3.352642
v -8.224911 5.210893 3.214609
v -8.393336 5.210893 3.208471
v -8.206612 5.210893 3.386861
v -8.349688 5.210893 3.386861
v -8.384509 5.210893 3.352642
v -8.232650 5.151469 3.214609
v -8.383711 4.980494 3.208471
v -8.216237 5.170046 3.386861
v -8.344563 5.024803 3.386861
v -8.375795 4.989454 3.352642
v -8.124820 5.002310 3.433397
v -8.156548 4.937186 3.258564
v -8.227142 4.505846 3.263965
v -8.204083 4.568586 3.402977
v -8.185717 4.666915 3.437187
vt 0.125000 0.024998
vt 0.149997 0.000000
vt 0.350002 0.250000
vt 0.149998 0.250000
vt 0.125000 0.225003
vt 0.649997 0.000000
vt 0.850002 0.000000
vt 0.875000 0.024998
vt 0.875000 0.225003
vt 0.850002 0.250000
vt 0.649997 0.250000
vt 0.375000 0.024998
vt 0.625000 0.225003
vt 0.375000 0.274998
vt 0.625000 0.475003
vt 0.375000 0.774997
vt 0.625000 0.975003
vt 0.375000 0.975002
vt 0.375000 0.524997
vt 0.625000 0.725002
vt 0.350002 0.000000
vt 0.625000 0.024998
vt 0.375000 0.225003
vt 0.625000 0.274998
vt 0.375000 0.475002
vt 0.625000 0.524998
vt 0.375000 0.725002
vt 0.625000 0.774998
vt 0.244685 0.250000
vt 0.375000 0.380315
vt 0.625000 0.379095
vt 0.754095 0.250000
vt 0.253957 0.000000
vt 0.375000 0.878957
vt 0.625000 0.880176
vt 0.744824 0.000000
vt 0.125000 0.024998
vt 0.149997 0.000000
vt 0.253957 0.000000
vt 0.244685 0.250000
vt 0.149998 0.250000
vt 0.125000 0.225003
vt 0.125000 0.024998
vt 0.149997 0.000000
vt 0.253957 0.000000
vt 0.244685 0.250000
vt 0.149998 0.250000
vt 0.125000 0.225003
vt 0.244685 0.250000
vt 0.253957 0.000000
vt 0.350002 0.000000
vt 0.375000 0.024998
vt 0.375000 0.225003
vt 0.350002 0.250000
vt 0.375000 0.122291
vt 0.375000 0.122291
vt 0.625000 0.122291
vt 0.249169 0.129091
vt 0.249169 0.129091
vt 0.249169 0.129091
vt 0.249169 0.129091
vt 0.125000 0.117660
vt 0.125000 0.117660
vt 0.125000 0.117660
vt 0.375000 0.632340
vt 0.625000 0.632340
vt 0.875000 0.117660
vt 0.244685 0.250000
vt 0.249169 0.129091
vt 0.375000 0.122291
vt 0.375000 0.225003
vt 0.350002 0.250000
vt 0.375000 0.122291
vt 0.249169 0.129091
vt 0.253957 0.000000
vt 0.350002 0.000000
vt 0.375000 0.024998
vt 0.000000 0.000000
vt 1.000000 0.000000
vt 1.000000 1.000000
vt 0.000000 1.000000
vt 0.000000 0.000000
vt 1.000000 0.000000
vt 1.000000 1.000000
vt 0.000000 1.000000
vt 0.000000 0.000000
vt 1.000000 0.000000
vt 1.000000 1.000000
vt 0.000000 1.000000
vt 0.000000 0.000000
vt 1.000000 0.000000
vt 1.000000 1.000000
vt 0.000000 1.000000
vt 0.000000 0.000000
vt 1.000000 0.000000
vt 1.000000 1.000000
vt 0.000000 1.000000
vt 0.000000 0.000000
vt 1.000000 0.000000
vt 1.000000 1.000000
vt 0.000000 1.000000
vt 0.000000 0.000000
vt 1.000000 0.000000
vt 1.000000 1.000000
vt 0.000000 1.000000
vt 0.000000 0.000000
vt 1.000000 0.000000
vt 1.000000 1.000000
vt 0.000000 1.000000
vt 0.000000 0.000000
vt 1.000000 0.000000
vt 1.000000 1.000000
vt 0.000000 1.000000
vt 0.000000 0.000000
vt 1.000000 0.000000
vt 1.000000 1.000000
vt 0.000000 1.000000
vt 0.000000 0.000000
vt 1.000000 0.000000
vt 1.000000 1.000000
vt 0.000000 1.000000
vt 0.000000 0.000000
vt 1.000000 0.000000
vt 1.000000 1.000000
vt 0.000000 1.000000
vt 0.000000 0.000000
vt 1.000000 0.000000
vt 1.000000 1.000000
vt 0.000000 1.000000
vt 0.000000 0.000000
vt 1.000000 0.000000
vt 1.000000 1.000000
vt 0.000000 1.000000
vt 0.000000 0.000000
vt 1.000000 0.000000
vt 1.000000 1.000000
vt 0.000000 1.000000
vt 0.000000 0.000000
vt 1.000000 0.000000
vt 1.000000 1.000000
vt 0.000000 1.000000
vt 0.000000 0.000000
vt 1.000000 0.000000
vt 1.000000 1.000000
vt 0.000000 1.000000
vt 0.000000 0.000000
vt 1.000000 0.000000
vt 1.000000 1.000000
vt 0.000000 1.000000
vt 0.000000 0.000000
vt 1.000000 0.000000
vt 1.000000 1.000000
vt 0.000000 1.000000
vt 0.000000 0.000000
vt 1.000000 0.000000
vt 1.000000 1.000000
vt 0.000000 1.000000
vt 0.000000 0.000000
vt 1.000000 0.000000
vt 1.000000 1.000000
vt 0.000000 1.000000
vt 0.000000 0.000000
vt 1.000000 0.000000
vt 1.000000 1.000000
vt 0.000000 1.000000
vt 0.000000 0.000000
vt 1.000000 0.000000
vt 1.000000 1.000000
vt 0.000000 1.000000
vt 0.000000 0.000000
vt 1.000000 0.000000
vt 1.000000 1.000000
vt 0.000000 1.000000
vt 0.000000 0.000000
vt 1.000000 0.000000
vt 1.000000 1.000000
vt 0.000000 1.000000
vt 0.187500 0.561145
vt 0.687500 0.561145
vt 0.124585 0.564546
vt 0.624585 0.564546
vt 0.126978 0.500000
vt 0.626978 0.500000
vt 0.175001 0.500000
vt 0.675001 0.500000
vt 0.187500 0.512499
vt 0.687500 0.512499
f 40/56 41/57 8/13 6/23
f 5/14 7/24 18/31 17/30
f 48/65 49/66 16/20 14/27
f 13/16 15/28 20/35 19/34
f 4/22 3/6 20/36 18/32 7/11 8/13 41/57
f 46/62 42/58 30/46 31/47 32/48
f 2/12 1/21 3/6 4/22
f 5/14 6/23 8/13 7/24
f 9/19 10/25 12/15 11/26
f 13/16 14/27 16/20 15/28
f 17/30 18/31 12/15 10/25
f 19/34 20/35 3/17 1/18
f 18/32 20/36 15/7 16/8 49/67 11/9 12/10
f 14/1 13/2 21/38 22/37
f 13/2 19/33 23/39 21/38
f 43/59 44/60 17/29 24/40
f 17/29 10/4 25/41 24/40
f 10/4 9/5 26/42 25/41
f 47/63 48/64 14/1 22/37
f 22/37 21/38 27/44 28/43
f 21/38 23/39 29/45 27/44
f 42/58 43/59 24/40 30/46
f 24/40 25/41 31/47 30/46
f 25/41 26/42 32/48 31/47
f 46/62 47/63 22/37 28/43
f 17/29 44/60 45/61 34/49
f 19/33 1/21 35/51 33/50
f 1/21 2/12 36/52 35/51
f 39/55 40/56 6/23 37/53
f 6/23 5/3 38/54 37/53
f 5/3 17/29 34/49 38/54
f 2/12 40/56 39/55 36/52
f 2/12 4/22 41/57 40/56
f 23/39 43/59 42/58 29/45
f 19/33 44/60 43/59 23/39
f 45/61 44/60 19/33 33/50
f 26/42 47/63 46/62 32/48
f 9/5 48/64 47/63 26/42
f 9/19 11/26 49/66 48/65
f 28/43 27/44 29/45 42/58 46/62
f 34/49 45/61 50/69 51/68
f 45/61 39/55 52/70 50/69
f 39/55 37/53 53/71 52/70
f 37/53 38/54 54/72 53/71
f 38/54 34/49 51/68 54/72
f 39/55 45/61 55/74 56/73
f 45/61 33/50 57/75 55/74
f 33/50 35/51 58/76 57/75
f 35/51 36/52 59/77 58/76
f 36/52 39/55 56/73 59/77
f 51/78 50/79 60/80 61/81
f 50/82 52/83 62/84 60/85
f 52/86 53/87 63/88 62/89
f 53/90 54/91 64/92 63/93
f 54/94 51/95 61/96 64/97
f 61/98 60/99 65/100 66/101
f 60/102 62/103 67/104 65/105
f 62/106 63/107 68/108 67/109
f 63/110 64/111 69/112 68/113
f 64/114 61/115 66/116 69/117
f 66/118 65/119 70/120 71/121
f 65/122 67/123 72/124 70/125
f 67/126 68/127 73/128 72/129
f 68/130 69/131 74/132 73/133
f 69/134 66/135 71/136 74/137
f 71/138 70/139 75/140 76/141
f 70/142 72/143 77/144 75/145
f 72/146 73/147 78/148 77/149
f 73/150 74/151 79/152 78/153
f 74/154 71/155 76/156 79/157
f 76/158 75/159 80/160 81/161
f 75/162 77/163 82/164 80/165
f 77/166 78/167 83/168 82/169
f 78/170 79/171 84/172 83/173
f 79/174 76/175 81/176 84/177
f 85/179 86/180 80/165 82/164
f 86/181 87/182 81/161 80/160
f 87/183 88/184 84/177 81/176
f 88/185 89/186 83/173 84/172
f 89/187 85/178 82/169 83/168
f 56/73 55/74 86/180 85/179
f 55/74 57/75 87/182 86/181
f 57/75 58/76 88/184 87/183
f 58/76 59/77 89/186 88/185
f 59/77 56/73 85/178 89/187
